
<svg width="17px" height="17px" viewBox="0 0 17 17" version="1.1" xmlns="http://www.w3.org/2000/svg" xmlns:xlink="http://www.w3.org/1999/xlink">
    <!-- Generator: Sketch 50.2 (55047) - http://www.bohemiancoding.com/sketch -->
    <desc>Created with Sketch.</desc>
    <defs></defs>
    <g id="Page-1" stroke="none" stroke-width="1" fill="none" fill-rule="evenodd">
        <g id="icon-search-livstyle" fill="#FFFFFF" fill-rule="nonzero" stroke="#FFFFFF" stroke-width="0.5">
            <path d="M16.271,15.727 L11.638,11.09 C12.489,10.027 13,8.674 13,7.202 C13,3.763 10.215,0.979 6.785,0.979 C3.35,0.979 0.57,3.768 0.57,7.202 C0.57,10.636 3.355,13.425 6.785,13.425 C8.265,13.425 9.623,12.906 10.69,12.043 L15.319,16.68 L16.271,15.727 Z M2.851,11.144 C1.8,10.093 1.224,8.695 1.224,7.206 C1.224,5.717 1.805,4.319 2.851,3.268 C3.897,2.217 5.3,1.632 6.785,1.632 C8.27,1.632 9.668,2.213 10.719,3.264 C11.77,4.315 12.346,5.713 12.346,7.202 C12.346,8.69 11.765,10.089 10.719,11.14 C9.668,12.191 8.27,12.772 6.785,12.772 C5.3,12.775 3.902,12.195 2.851,11.144 Z" id="Shape"></path>
        </g>
    </g>
</svg>